// Jest Snapshot v1, https://goo.gl/fbAQLP

exports[`Renders correctly 1`] = `
<div
  className="css-1vro1gn"
>
  <div
    className="col s12 l3 m6"
  >
    <div
      className="card z-depth-0"
    >
      <span
        className="view-label"
      >
         views
      </span>
      <div
        className="card-image"
      >
        <img />
      </div>
      <div
        className="css-1uucc1w"
      >
        <span
          className="photo-title"
        />
        <span
          className="photo-date"
        >
          Invalid date
        </span>
      </div>
    </div>
  </div>
</div>
`;

exports[`Renders photo card correctly 1`] = `
<div
  className="css-1vro1gn"
>
  <div
    className="col s12 l3 m6"
  >
    <div
      className="card z-depth-0"
    >
      <span
        className="view-label"
      >
         views
      </span>
      <div
        className="card-image"
      >
        <img
          alt="Example photo"
        />
      </div>
      <div
        className="css-1uucc1w"
      >
        <span
          className="photo-title"
        >
          Example photo
        </span>
        <span
          className="photo-date"
        >
          Invalid date
        </span>
      </div>
    </div>
  </div>
</div>
`;
